<svg xmlns="http://www.w3.org/2000/svg" width="41.268" height="39.944" viewBox="0 0 41.268 39.944">
    <defs>
        <style>
            .cls-1{fill:#fff4d3}
        </style>
    </defs>
    <g id="double-angle-pointing-to-right" transform="rotate(90 22.919 18.349)">
        <g id="Grupo_1" data-name="Grupo 1" transform="translate(4.57)">
            <path id="Caminho_48" d="M137.86 19.683L118.59.414a1.3 1.3 0 0 0-1.9 0l-2.068 2.067a1.3 1.3 0 0 0 0 1.9l16.251 16.251-16.252 16.253a1.3 1.3 0 0 0 0 1.9l2.068 2.067a1.3 1.3 0 0 0 1.9 0l19.27-19.269a1.3 1.3 0 0 0 0-1.9z" class="cls-1" data-name="Caminho 48" transform="translate(-98.329)"/>
            <path id="Caminho_49" d="M28.636 20.634a1.306 1.306 0 0 0-.414-.952L8.953.414a1.3 1.3 0 0 0-1.9 0L4.984 2.481a1.3 1.3 0 0 0 0 1.9l16.25 16.253-16.25 16.251a1.3 1.3 0 0 0 0 1.9l2.067 2.067a1.3 1.3 0 0 0 1.9 0l19.271-19.267a1.3 1.3 0 0 0 .414-.951z" class="cls-1" data-name="Caminho 49" transform="translate(-4.57)"/>
        </g>
    </g>
</svg>
