<svg xmlns="http://www.w3.org/2000/svg" id="_040-delivery-truck" width="74.105" height="55" data-name="040-delivery-truck" viewBox="0 0 74.105 55">
    <defs>
        <style>
            .cls-1{fill:#951920}
        </style>
    </defs>
    <path id="Caminho_74" d="M414.895 300a2.895 2.895 0 1 0 2.895 2.895 2.894 2.894 0 0 0-2.895-2.895zm0 0" class="cls-1" data-name="Caminho 74" transform="translate(-352.369 -256.579)"/>
    <path id="Caminho_75" d="M413.447 220a1.447 1.447 0 1 0 1.447 1.447 1.448 1.448 0 0 0-1.447-1.447zm0 0" class="cls-1" data-name="Caminho 75" transform="translate(-352.369 -188.158)"/>
    <path id="Caminho_76" d="M108.895 300a2.895 2.895 0 1 0 2.895 2.895 2.894 2.894 0 0 0-2.895-2.895zm0 0" class="cls-1" data-name="Caminho 76" transform="translate(-90.658 -256.579)"/>
    <path id="Caminho_77" d="M68.022 26.146l-2.5-9.982a4.34 4.34 0 0 0-3-7.479H50.947V4.342A4.347 4.347 0 0 0 46.605 0H4.342A4.347 4.347 0 0 0 0 4.342v37.632a4.347 4.347 0 0 0 4.342 4.342h5.211a8.684 8.684 0 1 0 17.368 0h26.921a8.684 8.684 0 1 0 17.368 0c0-.083 0-.165-.006-.247a4.349 4.349 0 0 0 2.9-4.1V33.29a7.247 7.247 0 0 0-6.083-7.144zm-5.178-8.777l2.171 8.684H52.994l3.319-3.319a1.447 1.447 0 1 0-2.047-2.047l-3.319 3.318v-6.636zm1.13-4.342a1.448 1.448 0 0 1-1.447 1.447h-11.58v-2.895h11.579a1.449 1.449 0 0 1 1.448 1.448zM18.237 52.105a5.789 5.789 0 1 1 5.789-5.789 5.8 5.8 0 0 1-5.789 5.789zm8.187-8.684a8.684 8.684 0 0 0-16.375 0H4.342a1.449 1.449 0 0 1-1.447-1.447V4.342A1.449 1.449 0 0 1 4.342 2.9h42.263a1.449 1.449 0 0 1 1.447 1.447v39.074zm36.1 8.684a5.789 5.789 0 1 1 5.789-5.789 5.8 5.8 0 0 1-5.787 5.789zm8.084-8.961a8.684 8.684 0 0 0-16.272.276h-3.389V28.948h15.921a4.349 4.349 0 0 1 4.093 2.895h-4.093a1.447 1.447 0 0 0 0 2.895h4.342v7.237a1.447 1.447 0 0 1-.6 1.171zm0 0" class="cls-1" data-name="Caminho 77"/>
    <path id="Caminho_78" d="M99.026 60a13.026 13.026 0 1 0 13.026 13.026A13.041 13.041 0 0 0 99.026 60zm0 23.158a10.132 10.132 0 1 1 10.132-10.132 10.143 10.143 0 0 1-10.132 10.132zm0 0" class="cls-1" data-name="Caminho 78" transform="translate(-73.553 -51.316)"/>
    <path id="Caminho_79" d="M173.237 105.789h-4.342v-4.342a1.447 1.447 0 1 0-2.895 0v5.789a1.447 1.447 0 0 0 1.447 1.447h5.789a1.447 1.447 0 0 0 0-2.895zm0 0" class="cls-1" data-name="Caminho 79" transform="translate(-141.974 -85.526)"/>
</svg>
