<svg xmlns="http://www.w3.org/2000/svg" id="_038-email-2" width="92.716" height="71.083" data-name="038-email-2" viewBox="0 0 92.716 71.083">
    <defs>
        <style>
            .cls-1{fill:#951920}
        </style>
    </defs>
    <g id="Grupo_7" data-name="Grupo 7">
        <g id="Grupo_6" data-name="Grupo 6">
            <path id="Caminho_59" d="M88.08 59.733H4.636A4.636 4.636 0 0 0 0 64.369v61.811a4.636 4.636 0 0 0 4.636 4.636H88.08a4.636 4.636 0 0 0 4.636-4.636V64.369a4.636 4.636 0 0 0-4.636-4.636zm1.545 66.447a1.545 1.545 0 0 1-1.545 1.545H4.636a1.545 1.545 0 0 1-1.545-1.545V64.369a1.545 1.545 0 0 1 1.545-1.545H88.08a1.545 1.545 0 0 1 1.545 1.545v61.811z" class="cls-1" data-name="Caminho 59" transform="translate(0 -59.733)"/>
            <path id="Caminho_60" d="M113.076 93.871a1.545 1.545 0 0 0-1.128.356L76.3 124.174a3.091 3.091 0 0 1-3.978 0l-35.65-29.947a1.545 1.545 0 0 0-1.987 2.367l35.649 29.946a6.173 6.173 0 0 0 7.952 0l35.649-29.946a1.546 1.546 0 0 0-.859-2.723z" class="cls-1" data-name="Caminho 60" transform="translate(-27.952 -87.684)"/>
            <path id="Caminho_61" d="M57.564 272.962a1.545 1.545 0 0 0-1.49.48L34.44 296.621a1.545 1.545 0 1 0 2.259 2.108l21.634-23.179a1.545 1.545 0 0 0-.769-2.588z" class="cls-1" data-name="Caminho 61" transform="translate(-27.843 -234.319)"/>
            <path id="Caminho_62" d="M343.9 273.442a1.545 1.545 0 1 0-2.259 2.108l21.634 23.179a1.545 1.545 0 0 0 2.259-2.108z" class="cls-1" data-name="Caminho 62" transform="translate(-279.414 -234.319)"/>
        </g>
    </g>
</svg>
