<svg xmlns="http://www.w3.org/2000/svg" width="262.672" height="102.621" viewBox="0 0 262.672 102.621">
    <defs>
        <style>
            .cls-1{fill:#951920}
        </style>
    </defs>
    <g id="Apresentação_de_marca_st_comercial2-22" transform="translate(-42.915 -108.186)">
        <path id="Caminho_34" d="M202.7 163.824a7.564 7.564 0 0 0 5.328-2.243.449.449 0 0 0 0-.645l-.685-.622a.441.441 0 0 0-.6 0 5.785 5.785 0 0 1-4.03 1.692c-3.455 0-6.3-3.227-6.3-7.194s2.81-7.2 6.3-7.2a5.919 5.919 0 0 1 4.486 2.18.433.433 0 0 0 .6.071l.74-.551a.441.441 0 0 0 .079-.638 7.674 7.674 0 0 0-5.9-2.873c-4.455 0-8.075 4.046-8.075 9.012s3.602 9.011 8.057 9.011z" class="cls-1" data-name="Caminho 34" transform="translate(-32.307 -8.009)"/>
        <path id="Caminho_35" d="M225.26 146c-4.3 0-7.8 4.014-7.8 8.949s3.5 8.949 7.8 8.949 7.8-4.022 7.8-8.949-3.503-8.949-7.8-8.949zm0 16.088c-3.3 0-5.99-3.2-5.99-7.139s2.692-7.139 5.99-7.139 5.99 3.2 5.99 7.139-2.684 7.1-5.99 7.1z" class="cls-1" data-name="Caminho 35" transform="translate(-37.166 -8.052)"/>
        <path id="Caminho_36" d="M257.5 146.07h-.653a.433.433 0 0 0-.394.252l-5.509 11.515a.134.134 0 0 1-.236 0l-5.508-11.516a.441.441 0 0 0-.4-.252h-.653a.433.433 0 0 0-.441.409l-1.228 16.7a.449.449 0 0 0 .449.48h.921a.441.441 0 0 0 .441-.417l.9-12.215a.126.126 0 0 1 .244-.047l5.022 10.444a.441.441 0 0 0 .787 0l5.021-10.444a.126.126 0 0 1 .244.047l.9 12.215a.449.449 0 0 0 .441.417h.929a.449.449 0 0 0 .441-.48l-1.22-16.7a.449.449 0 0 0-.488-.409z" class="cls-1" data-name="Caminho 36" transform="translate(-42.494 -8.066)"/>
        <path id="Caminho_37" d="M280.191 163.212v-.921a.449.449 0 0 0-.449-.449h-8.06a.441.441 0 0 1-.441-.441v-4.611a.441.441 0 0 1 .441-.441h4.966a.457.457 0 0 0 .449-.449v-.921a.449.449 0 0 0-.449-.441h-4.966a.441.441 0 0 1-.441-.441v-5.777a.441.441 0 0 1 .441-.441h8.06a.449.449 0 0 0 .449-.449v-.921a.441.441 0 0 0-.449-.441h-9.862a.441.441 0 0 0-.441.441v16.7a.441.441 0 0 0 .441.441h9.87a.441.441 0 0 0 .441-.441z" class="cls-1" data-name="Caminho 37" transform="translate(-48.235 -8.067)"/>
        <path id="Caminho_38" d="M292.557 146h-4.219a.441.441 0 0 0-.449.449v16.709a.441.441 0 0 0 .449.449h.905a.441.441 0 0 0 .449-.449v-2.991a.449.449 0 0 1 .457-.449h2.408a6.731 6.731 0 0 0 1.385-.15.441.441 0 0 1 .48.22l2.117 3.66a.464.464 0 0 0 .394.228h1.047a.456.456 0 0 0 .394-.685l-2.22-3.817a.457.457 0 0 1 .142-.606 6.682 6.682 0 0 0 2.951-5.509v-.283a6.682 6.682 0 0 0-6.69-6.777zm4.88 6.966a4.88 4.88 0 0 1-4.88 4.88h-2.408a.456.456 0 0 1-.456-.456v-9.13a.449.449 0 0 1 .457-.449h2.408a4.872 4.872 0 0 1 4.88 4.872z" class="cls-1" data-name="Caminho 38" transform="translate(-52.163 -8.052)"/>
        <path id="Caminho_39" d="M315.307 145.81c-4.447 0-8.067 4.046-8.067 9.012s3.621 9 8.067 9a7.587 7.587 0 0 0 5.336-2.243.449.449 0 0 0 0-.645l-.685-.622a.449.449 0 0 0-.606 0 5.754 5.754 0 0 1-4.03 1.692c-3.447 0-6.257-3.227-6.257-7.194s2.81-7.2 6.257-7.2a5.9 5.9 0 0 1 4.486 2.18.441.441 0 0 0 .606.071l.74-.551a.449.449 0 0 0 .079-.638 7.682 7.682 0 0 0-5.927-2.865z" class="cls-1" data-name="Caminho 39" transform="translate(-56.283 -8.011)"/>
        <rect id="Retângulo_33" width="1.81" height="17.591" class="cls-1" data-name="Retângulo 33" rx=".56" transform="translate(270.193 138.003)"/>
        <path id="Caminho_40" d="M348.861 146.526a.708.708 0 0 0-.661-.456h-.834a.7.7 0 0 0-.661.456l-6.053 16.528a.441.441 0 0 0 .417.6h.976a.441.441 0 0 0 .449-.323l.976-2.652a.441.441 0 0 1 .417-.291h7.871a.441.441 0 0 1 .417.291l.976 2.652a.441.441 0 0 0 .417.291h.976a.441.441 0 0 0 .417-.6zm2.29 12.081h-6.69a.165.165 0 0 1-.15-.22l3.337-9.13a.165.165 0 0 1 .307 0l3.345 9.13a.165.165 0 0 1-.15.22z" class="cls-1" data-name="Caminho 40" transform="translate(-63.392 -8.067)"/>
        <path id="Caminho_41" d="M373.423 161.843h-7.642a.441.441 0 0 1-.441-.441v-14.891a.449.449 0 0 0-.449-.441h-.921a.441.441 0 0 0-.441.441v16.7a.441.441 0 0 0 .441.441h9.445a.441.441 0 0 0 .441-.441v-.921a.449.449 0 0 0-.433-.447z" class="cls-1" data-name="Caminho 41" transform="translate(-68.269 -8.067)"/>
        <path id="Caminho_42" d="M201.746 175.36h-4.2a.441.441 0 0 0-.441.441v16.741a.441.441 0 0 0 .441.441h4.2a8.579 8.579 0 0 0 5.982-2.109 8.772 8.772 0 0 0 2.511-6.7c-.016-5.516-3.188-8.814-8.493-8.814zm0 15.812h-2.361a.441.441 0 0 1-.441-.441v-13.12a.441.441 0 0 1 .441-.441h2.361c2.495 0 6.69.905 6.69 7s-4.211 7.002-6.69 7.002z" class="cls-1" data-name="Caminho 42" transform="translate(-32.833 -14.304)"/>
        <path id="Caminho_43" d="M228.717 175.37h-9.838a.449.449 0 0 0-.449.441v16.7a.449.449 0 0 0 .449.441h9.838a.441.441 0 0 0 .441-.441v-.905a.441.441 0 0 0-.441-.441h-8.067a.441.441 0 0 1-.441-.441V186.1a.449.449 0 0 1 .441-.449h4.974a.441.441 0 0 0 .441-.441v-.921a.449.449 0 0 0-.441-.441h-4.974a.449.449 0 0 1-.441-.449v-5.769a.449.449 0 0 1 .441-.449h8.067a.441.441 0 0 0 .441-.441v-.921a.441.441 0 0 0-.441-.449z" class="cls-1" data-name="Caminho 43" transform="translate(-37.373 -14.306)"/>
        <path id="Caminho_44" d="M259.963 175.37h-9.823a.441.441 0 0 0-.441.441v16.7a.441.441 0 0 0 .441.441h.921a.441.441 0 0 0 .441-.441v-6.155a.449.449 0 0 1 .449-.441h4.722a.449.449 0 0 0 .449-.449v-.944a.441.441 0 0 0-.449-.441h-4.722a.441.441 0 0 1-.449-.441v-6.04a.456.456 0 0 1 .449-.449h8.012a.441.441 0 0 0 .441-.441v-.921a.441.441 0 0 0-.441-.417z" class="cls-1" data-name="Caminho 44" transform="translate(-44.031 -14.306)"/>
        <rect id="Retângulo_34" width="1.81" height="17.591" class="cls-1" data-name="Retângulo 34" rx=".56" transform="translate(221.733 161.056)"/>
        <path id="Caminho_45" d="M286.892 175.25c-4.3 0-7.792 4.014-7.792 8.949s3.5 8.957 7.792 8.957 7.8-4.014 7.8-8.941-3.487-8.965-7.8-8.965zm0 16.088c-3.3 0-5.982-3.2-5.982-7.139s2.684-7.147 5.982-7.147 5.99 3.2 5.99 7.147-2.676 7.139-5.99 7.139z" class="cls-1" data-name="Caminho 45" transform="translate(-50.292 -14.28)"/>
        <path id="Caminho_46" d="M309.6 175.108a4.872 4.872 0 0 0-5.108 4.817c0 2.928 2.495 4.069 4.722 5.069 2.361 1.07 3.786 1.85 3.786 3.652 0 2.031-1.739 2.952-3.361 2.952a3.833 3.833 0 0 1-3.935-3 .457.457 0 0 0-.527-.323l-.889.189a.456.456 0 0 0-.346.559 5.706 5.706 0 0 0 3.148 3.872h.488v.228a6.383 6.383 0 0 0 2.054.323c2.574 0 5.171-1.637 5.171-4.762s-2.692-4.321-4.848-5.3-3.636-1.739-3.636-3.424a3.1 3.1 0 0 1 3.3-3.007 3.833 3.833 0 0 1 3.754 2.29.449.449 0 0 0 .567.22l.842-.338a.456.456 0 0 0 .244-.614 5.62 5.62 0 0 0-5.423-3.408z" class="cls-1" data-name="Caminho 46" transform="translate(-55.577 -14.249)"/>
        <path id="Caminho_47" d="M144.152 108.48l-14.592 14.576a50.754 50.754 0 1 0-71.778 71.778l-14.564 14.58 1.118 1.11 14.584-14.585a50.748 50.748 0 1 0 71.768-71.768l14.612-14.557zM87.31 152h-2.732v-.787a14.018 14.018 0 0 0-.992-5.777 7.509 7.509 0 0 0-2.416-2.983 5.344 5.344 0 0 0-3.148-.992 4.864 4.864 0 0 0-4.069 1.944 7.265 7.265 0 0 0-1.574 4.628 6.3 6.3 0 0 0 1.055 3.636 32.806 32.806 0 0 0 4.486 4.722c2.747 2.534 4.431 4.581 5.155 6.3a12.766 12.766 0 0 1 1.063 5.045 10.838 10.838 0 0 1-3.691 8.4 12.074 12.074 0 0 1-8.217 3.266 11.009 11.009 0 0 1-8.7-4.415 10.7 10.7 0 0 0-1.157 2.715l-.157.582h-2.9l1.574-13.789h2.566v.787c.181 4 1.1 6.887 2.747 8.587a7.579 7.579 0 0 0 5.635 2.534 6.611 6.611 0 0 0 4.644-1.787 5.643 5.643 0 0 0 1.928-4.392 7.131 7.131 0 0 0-.874-3.534 17.536 17.536 0 0 0-3.337-3.888 34.9 34.9 0 0 1-5.612-6.3A11.019 11.019 0 0 1 67 150.628a11.869 11.869 0 0 1 3.329-8.256 10.318 10.318 0 0 1 7.745-3.628 7.989 7.989 0 0 1 7.084 3.935 14.167 14.167 0 0 0 .968-2.692l.15-.6h2.66zm34.765 26.414a3.723 3.723 0 0 1-5.3 0 3.66 3.66 0 0 1-1.07-2.621 3.731 3.731 0 1 1 6.367 2.645zm9.594-38.385c0 2.542-2.432 3.833-7.225 3.833-1.96 0-5.014-.173-9.075-.512l-8.374 27.547a14.773 14.773 0 0 0-.787 3.085 1.338 1.338 0 0 0 .787 1.322 5.085 5.085 0 0 0 2.361.535h2.1l-.874 2.865H92.717l.866-2.865h1.425a6.084 6.084 0 0 0 2.652-.519 3.235 3.235 0 0 0 1.417-1.165 20.007 20.007 0 0 0 1.362-3.668l8.414-27.61c-5.753-.48-9.838-.449-11.806.22-.787.268-1.22.606-1.22 1a2.943 2.943 0 0 0 .26.976 4.675 4.675 0 0 1 .323 1.456 2.534 2.534 0 0 1-.787 1.85 2.684 2.684 0 0 1-1.968.787A2.747 2.747 0 0 1 91.292 148a3.935 3.935 0 0 1-.787-2.361c0-1.763.968-3.29 2.873-4.549s4.88-1.787 9.311-1.787c2.188 0 6.375.252 12.444.787 4.313.37 7.579.551 9.72.551 1.133 0 2.511-.173 2.684-1.007a1.928 1.928 0 0 1 1.944-1.8 1.991 1.991 0 0 1 2.188 2.2z" class="cls-1" data-name="Caminho 47"/>
    </g>
</svg>
