<svg xmlns="http://www.w3.org/2000/svg" id="_047-location" width="72.25" height="71.052" data-name="047-location" viewBox="0 0 72.25 71.052">
    <defs>
        <style>
            .cls-1{fill:#cecece}
        </style>
    </defs>
    <g id="Grupo_4" data-name="Grupo 4">
        <g id="Grupo_3" data-name="Grupo 3">
            <path id="Caminho_51" d="M97 54.1c2.976 4.2 5.946 7.947 7.915 10.364.287.352.555.678.815.992h-5.941a1.2 1.2 0 1 0 0 2.408h19.266a1.2 1.2 0 1 0 0-2.408h-5.941a197.889 197.889 0 0 0 8.73-11.356 105.8 105.8 0 0 0 7.956-12.818c2.459-4.829 3.706-8.837 3.706-11.915a24.067 24.067 0 0 0-7.053-17.052 1.2 1.2 0 1 0-1.7 1.7 21.668 21.668 0 0 1 6.347 15.352c0 2.695-1.158 6.336-3.444 10.822a103.411 103.411 0 0 1-7.774 12.523c-2.936 4.141-5.87 7.851-7.815 10.235-.647.792-1.228 1.493-1.724 2.086a1.22 1.22 0 0 1-1.835 0c-.5-.592-1.078-1.293-1.724-2.086-1.945-2.383-4.879-6.093-7.815-10.235a103.409 103.409 0 0 1-7.774-12.523c-2.295-4.489-3.447-8.127-3.447-10.822a21.681 21.681 0 0 1 30.116-20 1.2 1.2 0 0 0 .94-2.218A24.093 24.093 0 0 0 85.34 29.367c0 3.078 1.248 7.087 3.706 11.921A105.727 105.727 0 0 0 97 54.1z" class="cls-1" data-name="Caminho 51" transform="translate(-73.297 -5.246)"/>
            <path id="Caminho_52" d="M182.7 84.493a1.2 1.2 0 1 0 0-2.408 12.042 12.042 0 1 0 8.515 3.527 1.2 1.2 0 1 0-1.7 1.7 9.633 9.633 0 1 1-6.812-2.821z" class="cls-1" data-name="Caminho 52" transform="translate(-146.577 -71.242)"/>
            <path id="Caminho_53" d="M71.8 378.821l-7.406-13.246a3.743 3.743 0 0 0-3.277-1.892h-8.585a1.2 1.2 0 1 0 0 2.408h8.582a1.336 1.336 0 0 1 1.176.657L69.694 380a1.084 1.084 0 0 1-.011 1.113 1.325 1.325 0 0 1-1.166.638H3.734a1.325 1.325 0 0 1-1.164-.638A1.084 1.084 0 0 1 2.558 380l7.4-13.246a1.334 1.334 0 0 1 1.175-.657h8.582a1.2 1.2 0 1 0 0-2.408h-8.578a3.745 3.745 0 0 0-3.279 1.892l-7.4 13.246a3.492 3.492 0 0 0 .037 3.505 3.709 3.709 0 0 0 3.243 1.828h64.78a3.709 3.709 0 0 0 3.242-1.828 3.492 3.492 0 0 0 .04-3.511z" class="cls-1" data-name="Caminho 53" transform="translate(0 -313.103)"/>
            <path id="Caminho_54" d="M359.5 406.351h-4.817a1.211 1.211 0 0 0-.668.2l-3.613 2.408a1.2 1.2 0 0 0 1.337 2l3.305-2.206h4.456a1.2 1.2 0 0 0 0-2.409z" class="cls-1" data-name="Caminho 54" transform="translate(-300.498 -349.75)"/>
            <path id="Caminho_55" d="M366.937 458.755a1.2 1.2 0 0 0 1.2 1.2h9.633a1.2 1.2 0 0 0 0-2.408h-9.633a1.2 1.2 0 0 0-1.2 1.208z" class="cls-1" data-name="Caminho 55" transform="translate(-315.158 -393.725)"/>
            <path id="Caminho_56" d="M94.97 411.167a1.2 1.2 0 0 0 .67-2.206l-3.612-2.408a1.212 1.212 0 0 0-.67-.2h-4.817a1.2 1.2 0 1 0 0 2.408H91l3.309 2.206a1.2 1.2 0 0 0 .661.2z" class="cls-1" data-name="Caminho 56" transform="translate(-73.295 -349.749)"/>
            <path id="Caminho_57" d="M60.941 457.551a1.2 1.2 0 1 0 0 2.408h9.633a1.2 1.2 0 1 0 0-2.408z" class="cls-1" data-name="Caminho 57" transform="translate(-51.307 -393.725)"/>
        </g>
    </g>
</svg>
