<svg xmlns="http://www.w3.org/2000/svg" width="9.6" height="17.946" viewBox="0 0 9.6 17.946">
    <defs>
        <style>
            .cls-1{fill:#951920}
        </style>
    </defs>
    <g id="down-arrow_2_" data-name="down-arrow (2)" transform="rotate(-90 -4.527 28.873)">
        <path id="Caminho_50" d="M24.163 33.586a.634.634 0 0 0-.9 0l-7.884 7.9-7.9-7.9a.634.634 0 0 0-.9.9l8.332 8.332a.619.619 0 0 0 .448.186.645.645 0 0 0 .448-.186l8.332-8.332a.621.621 0 0 0 .024-.9z" class="cls-1" data-name="Caminho 50"/>
    </g>
</svg>
