<svg xmlns="http://www.w3.org/2000/svg" width="31.483" height="31.467" viewBox="0 0 31.483 31.467">
    <defs>
        <style>
            .cls-1{fill:#fff4d3}.cls-2{fill:#951920}
        </style>
    </defs>
    <g id="whatsapp_7_" data-name="whatsapp (7)" transform="translate(0 -.134)">
        <path id="Caminho_81" d="M15.733.134A15.732 15.732 0 0 0 2.492 24.356L.044 30.707a.655.655 0 0 0 .612.892.638.638 0 0 0 .22-.038l6.555-2.34A15.732 15.732 0 1 0 15.733.134z" class="cls-1" data-name="Caminho 81"/>
        <path id="Caminho_82" d="M143.378 138.69s-1.606-.787-2.612-1.311c-1.138-.586-2.475.511-3.1 1.135a7.147 7.147 0 0 1-4.3-4.3c.624-.631 1.719-1.967 1.135-3.1a219.993 219.993 0 0 1-1.311-2.613.656.656 0 0 0-.585-.361h-1.311a3.95 3.95 0 0 0-3.278 3.933c0 2.058 2.463 6.012 4.124 7.675s5.615 4.124 7.675 4.124a3.95 3.95 0 0 0 3.933-3.278v-1.311a.656.656 0 0 0-.37-.593z" class="cls-2" data-name="Caminho 82" transform="translate(-120.145 -120.135)"/>
    </g>
</svg>
